{
  "data": [
    {
      "transaction_hash": "7a77e466f261c9579c7d3e62b8ebaffd11860bc5f9ae3a871baa42a42486f968",
      "timestamp": "2026-01-30T05:28:20.541Z",
      "block_height": 140540484,
      "transaction": {
        "payer": "0x319e67f2ef9d937f",
        "error": "",
        "fee": 0.00206,
        "status": "SEALED",
        "ft_transfers": [
          {
            "amount": 1,
            "approx_usd_price": 0.0639,
            "direction": "withdraw",
            "otherside": "0xd5b665244079d3bf",
            "balance": 472383.76559103,
            "sender": "0x84221fe0294044d7",
            "receiver": "0xd5b665244079d3bf",
            "token": {
              "name": "Flow",
              "token": "A.1654653399040a61.FlowToken.Vault",
              "symbol": "FLOW",
              "logo": "https://cdn.jsdelivr.net/gh/FlowFans/flow-token-list@main/token-registry/A.1654653399040a61.FlowToken/logo.svg"
            }
          }
        ],
        "nft_transfers": [],
        "evm_transactions": []
      },
      "roles": [
        "authorizer",
        "proposer",
        "A.1654653399040a61.FlowToken.TokensWithdrawn/from",
        "A.1654653399040a61.FlowToken.Vault/from"
      ]
    },
    {
      "transaction_hash": "eabc1a807e049c4b64461289a19d05438124138def0030c6dc7b218fa293d0f3",
      "timestamp": "2026-01-27T12:52:21.773Z",
      "block_height": 140249915,
      "transaction": {
        "payer": "0x319e67f2ef9d937f",
        "error": "",
        "fee": 0.00178,
        "status": "SEALED",
        "ft_transfers": [
          {
            "amount": 100000,
            "approx_usd_price": 7416.736,
            "direction": "withdraw",
            "otherside": "0x93c3afb0e23b0577",
            "balance": 472384.76559103,
            "sender": "0x84221fe0294044d7",
            "receiver": "0x93c3afb0e23b0577",
            "token": {
              "name": "Flow",
              "token": "A.1654653399040a61.FlowToken.Vault",
              "symbol": "FLOW",
              "logo": "https://cdn.jsdelivr.net/gh/FlowFans/flow-token-list@main/token-registry/A.1654653399040a61.FlowToken/logo.svg"
            }
          }
        ],
        "nft_transfers": [],
        "evm_transactions": []
      },
      "roles": [
        "authorizer",
        "proposer",
        "A.1654653399040a61.FlowToken.TokensWithdrawn/from",
        "A.1654653399040a61.FlowToken.Vault/from"
      ]
    },
    {
      "transaction_hash": "7dfff16db291ed6c7dc8010ca061e0c808db3fa30c96978712c34c19f8d2e20a",
      "timestamp": "2026-01-27T12:49:57.97Z",
      "block_height": 140249735,
      "transaction": {
        "payer": "0x319e67f2ef9d937f",
        "error": "",
        "fee": 0.00146,
        "status": "SEALED",
        "ft_transfers": [
          {
            "amount": 569600,
            "approx_usd_price": 42245.7283,
            "direction": "deposit",
            "otherside": "0x8624b52f9ddcd04a",
            "balance": 572384.76559103,
            "sender": "0x8624b52f9ddcd04a",
            "receiver": "0x84221fe0294044d7",
            "token": {
              "name": "Flow",
              "token": "A.1654653399040a61.FlowToken.Vault",
              "symbol": "FLOW",
              "logo": "https://cdn.jsdelivr.net/gh/FlowFans/flow-token-list@main/token-registry/A.1654653399040a61.FlowToken/logo.svg"
            }
          }
        ],
        "nft_transfers": [],
        "evm_transactions": []
      },
      "roles": [
        "authorizer",
        "proposer",
        "A.1654653399040a61.FlowToken.TokensDeposited/to",
        "A.1654653399040a61.FlowToken.Vault/to"
      ]
    },
    {
      "transaction_hash": "a46cb5ccd038d8347b360df235bd2676ded906050c9fa0d9645e435b44a1ed99",
      "timestamp": "2026-01-22T13:20:20.981Z",
      "block_height": 139712213,
      "transaction": {
        "payer": "0x319e67f2ef9d937f",
        "error": "",
        "fee": 0.00178,
        "status": "SEALED",
        "ft_transfers": [
          {
            "amount": 80000,
            "approx_usd_price": 6610.6376,
            "direction": "withdraw",
            "otherside": "0x93c3afb0e23b0577",
            "balance": 2784.76559103,
            "sender": "0x84221fe0294044d7",
            "receiver": "0x93c3afb0e23b0577",
            "token": {
              "name": "Flow",
              "token": "A.1654653399040a61.FlowToken.Vault",
              "symbol": "FLOW",
              "logo": "https://cdn.jsdelivr.net/gh/FlowFans/flow-token-list@main/token-registry/A.1654653399040a61.FlowToken/logo.svg"
            }
          }
        ],
        "nft_transfers": [],
        "evm_transactions": []
      },
      "roles": [
        "authorizer",
        "proposer",
        "A.1654653399040a61.FlowToken.TokensWithdrawn/from",
        "A.1654653399040a61.FlowToken.Vault/from"
      ]
    },
    {
      "transaction_hash": "8a38870b4cdb8b48f7508aff26668617db289aa1642990962dd91fecb6cc72e8",
      "timestamp": "2026-01-22T13:18:36.445Z",
      "block_height": 139712083,
      "transaction": {
        "payer": "0x319e67f2ef9d937f",
        "error": "",
        "fee": 0.00142,
        "status": "SEALED",
        "ft_transfers": [
          {
            "amount": 2131.29313915,
            "approx_usd_price": 176.1151,
            "direction": "deposit",
            "otherside": "0x8624b52f9ddcd04a",
            "balance": 82784.76559103,
            "sender": "0x8624b52f9ddcd04a",
            "receiver": "0x84221fe0294044d7",
            "token": {
              "name": "Flow",
              "token": "A.1654653399040a61.FlowToken.Vault",
              "symbol": "FLOW",
              "logo": "https://cdn.jsdelivr.net/gh/FlowFans/flow-token-list@main/token-registry/A.1654653399040a61.FlowToken/logo.svg"
            }
          }
        ],
        "nft_transfers": [],
        "evm_transactions": []
      },
      "roles": [
        "authorizer",
        "proposer",
        "A.1654653399040a61.FlowToken.TokensDeposited/to",
        "A.1654653399040a61.FlowToken.Vault/to"
      ]
    },
    {
      "transaction_hash": "7183adde634a60a1eeeed21174ffa255f35556818a3b220999aee094807fe8d9",
      "timestamp": "2026-01-22T02:19:55.864Z",
      "block_height": 139662688,
      "transaction": {
        "payer": "0x319e67f2ef9d937f",
        "error": "",
        "fee": 0.00154,
        "status": "SEALED",
        "ft_transfers": [
          {
            "amount": 77888.60421666,
            "approx_usd_price": 6574.9657,
            "direction": "deposit",
            "otherside": "0x8624b52f9ddcd04a",
            "balance": 80653.47245188,
            "sender": "0x8624b52f9ddcd04a",
            "receiver": "0x84221fe0294044d7",
            "token": {
              "name": "Flow",
              "token": "A.1654653399040a61.FlowToken.Vault",
              "symbol": "FLOW",
              "logo": "https://cdn.jsdelivr.net/gh/FlowFans/flow-token-list@main/token-registry/A.1654653399040a61.FlowToken/logo.svg"
            }
          }
        ],
        "nft_transfers": [],
        "evm_transactions": []
      },
      "roles": [
        "authorizer",
        "proposer",
        "A.1654653399040a61.FlowToken.TokensDeposited/to",
        "A.1654653399040a61.FlowToken.Vault/to"
      ]
    },
    {
      "transaction_hash": "63af278eb6f091ec1fe7d3c884fc0a06faa88775a546bd7956dff22e473187fe",
      "timestamp": "2026-01-19T15:36:35.051Z",
      "block_height": 139398513,
      "transaction": {
        "payer": "0x319e67f2ef9d937f",
        "error": "",
        "fee": 0.0011,
        "status": "SEALED",
        "ft_transfers": [],
        "nft_transfers": [],
        "evm_transactions": []
      },
      "roles": [
        "authorizer",
        "proposer",
        "flow.StorageCapabilityControllerIssued/address",
        "flow.CapabilityPublished/address"
      ]
    },
    {
      "transaction_hash": "0bd7041f1522f8163f09d281d08d71e5af59eefb1486e8aa7989231cbf4b55d3",
      "timestamp": "2026-01-16T04:40:53.436Z",
      "block_height": 139025743,
      "transaction": {
        "payer": "0x319e67f2ef9d937f",
        "error": "",
        "fee": 0.00082,
        "status": "SEALED",
        "ft_transfers": [],
        "nft_transfers": [],
        "evm_transactions": [
          "0x45bbbf176211041952c9bbc9cbbd319c645c618d5f3c64f74101da602dea0e45"
        ]
      },
      "roles": [
        "authorizer",
        "proposer"
      ]
    },
    {
      "transaction_hash": "2ffbf1b301e815aa0fa5d0349880215a5bcfe03cff21e14f265c0d1ed2d8219f",
      "timestamp": "2026-01-16T04:37:39.502Z",
      "block_height": 139025500,
      "transaction": {
        "payer": "0x319e67f2ef9d937f",
        "error": "",
        "fee": 0.0009,
        "status": "SEALED",
        "ft_transfers": [],
        "nft_transfers": [],
        "evm_transactions": [
          "0x1b6bc7e0cd2e8ab14dc357699da02d66c7c6e9aaa26cd5107cb03f2f6f25099b"
        ]
      },
      "roles": [
        "authorizer",
        "proposer"
      ]
    },
    {
      "transaction_hash": "74d8b67277fa91ee749a02aac282e446ddcbcf4d9d14cdcfef68c7b048ff32df",
      "timestamp": "2026-01-16T04:36:07.643Z",
      "block_height": 139025387,
      "transaction": {
        "payer": "0x319e67f2ef9d937f",
        "error": "",
        "fee": 0.0015,
        "status": "SEALED",
        "ft_transfers": [
          {
            "amount": 1000,
            "approx_usd_price": 100.798,
            "direction": "withdraw",
            "otherside": "",
            "balance": 2764.86823522,
            "sender": "0x84221fe0294044d7",
            "receiver": "",
            "token": {
              "name": "Flow",
              "token": "A.1654653399040a61.FlowToken.Vault",
              "symbol": "FLOW",
              "logo": "https://cdn.jsdelivr.net/gh/FlowFans/flow-token-list@main/token-registry/A.1654653399040a61.FlowToken/logo.svg"
            }
          }
        ],
        "nft_transfers": [],
        "evm_transactions": [
          "0xa7a859ed0af8ffbdeb14d86b7cc6a826193a828a77e95caf2f4d6ac07d2fd153",
          "0x70b5550121e79df7afb071a3921a47dc960dc9b8b1728c2312f21904403bff5a"
        ]
      },
      "roles": [
        "authorizer",
        "proposer",
        "A.1654653399040a61.FlowToken.TokensWithdrawn/from",
        "A.1654653399040a61.FlowToken.Vault/from"
      ]
    },
    {
      "transaction_hash": "77ee603d4c2f32d392fa69dac9fd20a15e07a684ef8e4de5f939a7fd9ac10d1f",
      "timestamp": "2026-01-15T23:35:10.426Z",
      "block_height": 139002817,
      "transaction": {
        "payer": "0x319e67f2ef9d937f",
        "error": "",
        "fee": 0.0087,
        "status": "SEALED",
        "ft_transfers": [
          {
            "amount": 0.0001,
            "approx_usd_price": 0,
            "direction": "withdraw",
            "otherside": "0x1e4aa0b87d10b141",
            "balance": 3764.86823522,
            "sender": "0x84221fe0294044d7",
            "receiver": "0x1e4aa0b87d10b141",
            "token": {
              "name": "Flow",
              "token": "A.1654653399040a61.FlowToken.Vault",
              "symbol": "FLOW",
              "logo": "https://cdn.jsdelivr.net/gh/FlowFans/flow-token-list@main/token-registry/A.1654653399040a61.FlowToken/logo.svg"
            }
          },
          {
            "amount": 65917.99,
            "approx_usd_price": 0,
            "direction": "withdraw",
            "otherside": "BURNED",
            "balance": 0,
            "sender": "0x84221fe0294044d7",
            "receiver": "BURNED",
            "token": {
              "name": "EVMVMBridgedToken_2aabea2058b5ac2d339b163c6ab6f2b6d53aabed",
              "token": "A.1e4aa0b87d10b141.EVMVMBridgedToken_2aabea2058b5ac2d339b163c6ab6f2b6d53aabed.Vault",
              "symbol": "USDF",
              "logo": "https://assets.website-files.com/5f6294c0c7a8cdd643b1c820/5f6294c0c7a8cda55cb1c936_Flow_Wordmark.svg"
            }
          }
        ],
        "nft_transfers": [],
        "evm_transactions": [
          "0x00362600c8579510181c051d8d255b60c30a85e42acb3eee3eb642e746474898"
        ]
      },
      "roles": [
        "authorizer",
        "proposer",
        "A.1e4aa0b87d10b141.EVMVMBridgedToken_2aabea2058b5ac2d339b163c6ab6f2b6d53aabed.Vault/from",
        "A.1654653399040a61.FlowToken.Vault/from",
        "A.1654653399040a61.FlowToken.TokensWithdrawn/from"
      ]
    },
    {
      "transaction_hash": "d88febaed704f8a831393421b6de33c36b7e0f2e3f05d59421e463c82f1d712f",
      "timestamp": "2026-01-15T23:04:23.867Z",
      "block_height": 139000509,
      "transaction": {
        "payer": "0x319e67f2ef9d937f",
        "error": "",
        "fee": 0.00214,
        "status": "SEALED",
        "ft_transfers": [
          {
            "amount": 65917.99,
            "approx_usd_price": 0,
            "direction": "deposit",
            "otherside": "0x8a7fd5da430e1198",
            "balance": 65917.99,
            "sender": "0x8a7fd5da430e1198",
            "receiver": "0x84221fe0294044d7",
            "token": {
              "name": "EVMVMBridgedToken_2aabea2058b5ac2d339b163c6ab6f2b6d53aabed",
              "token": "A.1e4aa0b87d10b141.EVMVMBridgedToken_2aabea2058b5ac2d339b163c6ab6f2b6d53aabed.Vault",
              "symbol": "USDF",
              "logo": "https://assets.website-files.com/5f6294c0c7a8cdd643b1c820/5f6294c0c7a8cda55cb1c936_Flow_Wordmark.svg"
            }
          }
        ],
        "nft_transfers": [],
        "evm_transactions": []
      },
      "roles": [
        "A.1e4aa0b87d10b141.EVMVMBridgedToken_2aabea2058b5ac2d339b163c6ab6f2b6d53aabed.Vault/to"
      ]
    },
    {
      "transaction_hash": "673bdc9eb46a69ef4c1ca22ecbc5b3e8369c155574e74ac25f778f9a38753105",
      "timestamp": "2026-01-15T07:57:41.866Z",
      "block_height": 138932618,
      "transaction": {
        "payer": "0x319e67f2ef9d937f",
        "error": "",
        "fee": 0.0011,
        "status": "SEALED",
        "ft_transfers": [],
        "nft_transfers": [],
        "evm_transactions": []
      },
      "roles": [
        "authorizer",
        "proposer",
        "flow.StorageCapabilityControllerIssued/address",
        "flow.CapabilityPublished/address"
      ]
    },
    {
      "transaction_hash": "3d2d53d1235eee3e209b95093a3c54a3cb7ef3c6e9df5c197462aab9406868e0",
      "timestamp": "2026-01-15T00:31:12.978Z",
      "block_height": 138899137,
      "transaction": {
        "payer": "0x319e67f2ef9d937f",
        "error": "",
        "fee": 0.00154,
        "status": "SEALED",
        "ft_transfers": [
          {
            "amount": 100,
            "approx_usd_price": 9.9,
            "direction": "deposit",
            "otherside": "0x8624b52f9ddcd04a",
            "balance": 3764.86833522,
            "sender": "0x8624b52f9ddcd04a",
            "receiver": "0x84221fe0294044d7",
            "token": {
              "name": "Flow",
              "token": "A.1654653399040a61.FlowToken.Vault",
              "symbol": "FLOW",
              "logo": "https://cdn.jsdelivr.net/gh/FlowFans/flow-token-list@main/token-registry/A.1654653399040a61.FlowToken/logo.svg"
            }
          }
        ],
        "nft_transfers": [],
        "evm_transactions": []
      },
      "roles": [
        "authorizer",
        "proposer",
        "A.1654653399040a61.FlowToken.TokensDeposited/to",
        "A.1654653399040a61.FlowToken.Vault/to"
      ]
    },
    {
      "transaction_hash": "51d15653d3ef20771b7172de231723f804b20bb8ddb177c8d802d6da9bfe623f",
      "timestamp": "2026-01-14T23:59:09.145Z",
      "block_height": 138896732,
      "transaction": {
        "payer": "0x319e67f2ef9d937f",
        "error": "",
        "fee": 0.00142,
        "status": "SEALED",
        "ft_transfers": [
          {
            "amount": 3492,
            "approx_usd_price": 347.6647,
            "direction": "deposit",
            "otherside": "0x8624b52f9ddcd04a",
            "balance": 3664.86833522,
            "sender": "0x8624b52f9ddcd04a",
            "receiver": "0x84221fe0294044d7",
            "token": {
              "name": "Flow",
              "token": "A.1654653399040a61.FlowToken.Vault",
              "symbol": "FLOW",
              "logo": "https://cdn.jsdelivr.net/gh/FlowFans/flow-token-list@main/token-registry/A.1654653399040a61.FlowToken/logo.svg"
            }
          }
        ],
        "nft_transfers": [],
        "evm_transactions": []
      },
      "roles": [
        "authorizer",
        "proposer",
        "A.1654653399040a61.FlowToken.TokensDeposited/to",
        "A.1654653399040a61.FlowToken.Vault/to"
      ]
    },
    {
      "transaction_hash": "4b03f330608ebab2fefbf869e6cab412fe8de77b2d79af1fdcad0a4feee6e9a7",
      "timestamp": "2026-01-14T23:58:38.023Z",
      "block_height": 138896694,
      "transaction": {
        "payer": "0x319e67f2ef9d937f",
        "error": "",
        "fee": 0.0015,
        "status": "SEALED",
        "ft_transfers": [
          {
            "amount": 171.95,
            "approx_usd_price": 17.1194,
            "direction": "deposit",
            "otherside": "0x8624b52f9ddcd04a",
            "balance": 172.86833522,
            "sender": "0x8624b52f9ddcd04a",
            "receiver": "0x84221fe0294044d7",
            "token": {
              "name": "Flow",
              "token": "A.1654653399040a61.FlowToken.Vault",
              "symbol": "FLOW",
              "logo": "https://cdn.jsdelivr.net/gh/FlowFans/flow-token-list@main/token-registry/A.1654653399040a61.FlowToken/logo.svg"
            }
          }
        ],
        "nft_transfers": [],
        "evm_transactions": []
      },
      "roles": [
        "authorizer",
        "proposer",
        "A.1654653399040a61.FlowToken.TokensDeposited/to",
        "A.1654653399040a61.FlowToken.Vault/to"
      ]
    },
    {
      "transaction_hash": "e3accf8acf4917b206f596f9304bb7ab91acbe5e6eb3318458b135a128aebccf",
      "timestamp": "2026-01-14T23:56:35.253Z",
      "block_height": 138896540,
      "transaction": {
        "payer": "0x319e67f2ef9d937f",
        "error": "",
        "fee": 0.0009,
        "status": "SEALED",
        "ft_transfers": [],
        "nft_transfers": [],
        "evm_transactions": [
          "0x4ee86ab401925a0ae8a3cc7ebcd2aece23b0c3642b7eb7d195cbaa91d794f74a"
        ]
      },
      "roles": [
        "authorizer",
        "proposer"
      ]
    },
    {
      "transaction_hash": "5bbe73feed49af2570f5c7c32a18984289edfcfb00e3e403fb0f85daf155a443",
      "timestamp": "2026-01-12T01:27:28.038Z",
      "block_height": 138583400,
      "transaction": {
        "payer": "0x319e67f2ef9d937f",
        "error": "",
        "fee": 0.0011,
        "status": "SEALED",
        "ft_transfers": [],
        "nft_transfers": [],
        "evm_transactions": [
          "0x027da92178072a23b105560942dd91c74c3023da7294813859fc608fdb6cf8f7"
        ]
      },
      "roles": [
        "authorizer",
        "proposer"
      ]
    },
    {
      "transaction_hash": "f524e39e13174a731c823e0611529000a2f6eb5244b64ee250055372c5ee346a",
      "timestamp": "2026-01-09T14:23:32.557Z",
      "block_height": 138355553,
      "transaction": {
        "payer": "0x319e67f2ef9d937f",
        "error": "",
        "fee": 0.00178,
        "status": "SEALED",
        "ft_transfers": [
          {
            "amount": 1,
            "approx_usd_price": 0.1027,
            "direction": "withdraw",
            "otherside": "0x93c3afb0e23b0577",
            "balance": 0.91833522,
            "sender": "0x84221fe0294044d7",
            "receiver": "0x93c3afb0e23b0577",
            "token": {
              "name": "Flow",
              "token": "A.1654653399040a61.FlowToken.Vault",
              "symbol": "FLOW",
              "logo": "https://cdn.jsdelivr.net/gh/FlowFans/flow-token-list@main/token-registry/A.1654653399040a61.FlowToken/logo.svg"
            }
          }
        ],
        "nft_transfers": [],
        "evm_transactions": []
      },
      "roles": [
        "authorizer",
        "proposer",
        "A.1654653399040a61.FlowToken.TokensWithdrawn/from",
        "A.1654653399040a61.FlowToken.Vault/from"
      ]
    },
    {
      "transaction_hash": "c4f814c88a46c5eb8f76a85174a0403d9c8c25396ead300a6027a7fb7bae0062",
      "timestamp": "2026-01-09T02:04:49.619Z",
      "block_height": 138310678,
      "transaction": {
        "payer": "0x319e67f2ef9d937f",
        "error": "",
        "fee": 0.00186,
        "status": "SEALED",
        "ft_transfers": [
          {
            "amount": 17440,
            "approx_usd_price": 1791.1466,
            "direction": "withdraw",
            "otherside": "0x6caed544841b2d67",
            "balance": 1.91833522,
            "sender": "0x84221fe0294044d7",
            "receiver": "0x6caed544841b2d67",
            "token": {
              "name": "Flow",
              "token": "A.1654653399040a61.FlowToken.Vault",
              "symbol": "FLOW",
              "logo": "https://cdn.jsdelivr.net/gh/FlowFans/flow-token-list@main/token-registry/A.1654653399040a61.FlowToken/logo.svg"
            }
          }
        ],
        "nft_transfers": [],
        "evm_transactions": []
      },
      "roles": [
        "authorizer",
        "proposer",
        "A.1654653399040a61.FlowToken.TokensWithdrawn/from",
        "A.1654653399040a61.FlowToken.Vault/from"
      ]
    }
  ],
  "_links": {
    "next": "/wallet/v1/participation/0x84221fe0294044d7/aggregate?height=140540484&limit=20&offset=20",
    "self": "/wallet/v1/participation/0x84221fe0294044d7/aggregate?height=140540484&limit=20"
  },
  "_meta": {
    "totalCount": 7924
  }
}